{"items":[{"id":"01KQD4GGW2T82V5Y4TWFYBBDPR","companyId":"01KQ28E8FXFN06M56NRA      ","sku":"UAT-S-005","nameAr":"مرطّب جسم 200 مل","nameEn":"مرطّب جسم 200 مل","name1":"مرطّب جسم 200 مل","name2":null,"name3":null,"generatedFullName":"مرطّب جسم 200 مل","categoryId":"01KQD4GG5GKKM5QTG61710X6D9","brandId":null,"type":"storable","baseUnitId":"01KQ52FTC320TYSJD4Q4      ","saleUnitId":"01KQ52FTC320TYSJD4Q4      ","purchaseUnitId":"01KQ52FTC320TYSJD4Q4      ","defaultSalePriceIqd":"5500","defaultPurchasePriceIqd":"3500","minSalePriceIqd":"4400","description":null,"isPublishedOnline":false,"tags":["uat"],"imageUrls":[],"isActive":true,"createdAt":"2026-04-29T17:27:42.209Z","updatedAt":"2026-04-29T17:27:42.209Z","createdBy":"uat-seed                  ","updatedBy":"uat-seed                  ","deletedAt":null,"deletedBy":null,"category":{"id":"01KQD4GG5GKKM5QTG61710X6D9","nameAr":"قرطاسية"},"_count":{"variants":1}},{"id":"01KQD4GGVCGATARRDXD1PP6GQB","companyId":"01KQ28E8FXFN06M56NRA      ","sku":"UAT-S-004","nameAr":"لاصق ورق 50 ورقة","nameEn":"لاصق ورق 50 ورقة","name1":"لاصق ورق 50 ورقة","name2":null,"name3":null,"generatedFullName":"لاصق ورق 50 ورقة","categoryId":"01KQD4GG5GKKM5QTG61710X6D9","brandId":null,"type":"storable","baseUnitId":"01KQ52FTC320TYSJD4Q4      ","saleUnitId":"01KQ52FTC320TYSJD4Q4      ","purchaseUnitId":"01KQ52FTC320TYSJD4Q4      ","defaultSalePriceIqd":"1500","defaultPurchasePriceIqd":"900","minSalePriceIqd":"1200","description":null,"isPublishedOnline":false,"tags":["uat"],"imageUrls":[],"isActive":true,"createdAt":"2026-04-29T17:27:42.187Z","updatedAt":"2026-04-29T17:27:42.187Z","createdBy":"uat-seed                  ","updatedBy":"uat-seed                  ","deletedAt":null,"deletedBy":null,"category":{"id":"01KQD4GG5GKKM5QTG61710X6D9","nameAr":"قرطاسية"},"_count":{"variants":1}},{"id":"01KQD4GGV6AEFTS8JRBBR3GTDA","companyId":"01KQ28E8FXFN06M56NRA      ","sku":"UAT-S-003","nameAr":"مقص مكتبي","nameEn":"مقص مكتبي","name1":"مقص مكتبي","name2":null,"name3":null,"generatedFullName":"مقص مكتبي","categoryId":"01KQD4GG5GKKM5QTG61710X6D9","brandId":null,"type":"storable","baseUnitId":"01KQ52FTC320TYSJD4Q4      ","saleUnitId":"01KQ52FTC320TYSJD4Q4      ","purchaseUnitId":"01KQ52FTC320TYSJD4Q4      ","defaultSalePriceIqd":"2500","defaultPurchasePriceIqd":"1500","minSalePriceIqd":"2000","description":null,"isPublishedOnline":false,"tags":["uat"],"imageUrls":[],"isActive":true,"createdAt":"2026-04-29T17:27:42.181Z","updatedAt":"2026-04-29T17:27:42.181Z","createdBy":"uat-seed                  ","updatedBy":"uat-seed                  ","deletedAt":null,"deletedBy":null,"category":{"id":"01KQD4GG5GKKM5QTG61710X6D9","nameAr":"قرطاسية"},"_count":{"variants":1}},{"id":"01KQD4GGTZ0M9ST7CKDWHH6DQQ","companyId":"01KQ28E8FXFN06M56NRA      ","sku":"UAT-S-002","nameAr":"قلم حبر أزرق 12 قطعة","nameEn":"قلم حبر أزرق 12 قطعة","name1":"قلم حبر أزرق 12 قطعة","name2":null,"name3":null,"generatedFullName":"قلم حبر أزرق 12 قطعة","categoryId":"01KQD4GG5GKKM5QTG61710X6D9","brandId":null,"type":"storable","baseUnitId":"01KQ52FTC320TYSJD4Q4      ","saleUnitId":"01KQ52FTC320TYSJD4Q4      ","purchaseUnitId":"01KQ52FTC320TYSJD4Q4      ","defaultSalePriceIqd":"3000","defaultPurchasePriceIqd":"1800","minSalePriceIqd":"2400","description":null,"isPublishedOnline":false,"tags":["uat"],"imageUrls":[],"isActive":true,"createdAt":"2026-04-29T17:27:42.174Z","updatedAt":"2026-04-29T17:27:42.174Z","createdBy":"uat-seed                  ","updatedBy":"uat-seed                  ","deletedAt":null,"deletedBy":null,"category":{"id":"01KQD4GG5GKKM5QTG61710X6D9","nameAr":"قرطاسية"},"_count":{"variants":1}},{"id":"01KQD4GGTNNN04NCHFCYV2RY1Z","companyId":"01KQ28E8FXFN06M56NRA      ","sku":"UAT-S-001","nameAr":"دفتر A4 100 ورقة","nameEn":"دفتر A4 100 ورقة","name1":"دفتر A4 100 ورقة","name2":null,"name3":null,"generatedFullName":"دفتر A4 100 ورقة","categoryId":"01KQD4GG5GKKM5QTG61710X6D9","brandId":null,"type":"storable","baseUnitId":"01KQ52FTC320TYSJD4Q4      ","saleUnitId":"01KQ52FTC320TYSJD4Q4      ","purchaseUnitId":"01KQ52FTC320TYSJD4Q4      ","defaultSalePriceIqd":"2500","defaultPurchasePriceIqd":"1500","minSalePriceIqd":"2000","description":null,"isPublishedOnline":false,"tags":["uat"],"imageUrls":[],"isActive":true,"createdAt":"2026-04-29T17:27:42.164Z","updatedAt":"2026-04-29T17:27:42.164Z","createdBy":"uat-seed                  ","updatedBy":"uat-seed                  ","deletedAt":null,"deletedBy":null,"category":{"id":"01KQD4GG5GKKM5QTG61710X6D9","nameAr":"قرطاسية"},"_count":{"variants":1}},{"id":"01KQD4GGTC2DWPT0R2BCAFJ8BJ","companyId":"01KQ28E8FXFN06M56NRA      ","sku":"UAT-E-010","nameAr":"ميزان رقمي","nameEn":"ميزان رقمي","name1":"ميزان رقمي","name2":null,"name3":null,"generatedFullName":"ميزان رقمي","categoryId":"01KQD4GG5F6C4H4X6EZ02KYD9X","brandId":null,"type":"storable","baseUnitId":"01KQ52FTC320TYSJD4Q4      ","saleUnitId":"01KQ52FTC320TYSJD4Q4      ","purchaseUnitId":"01KQ52FTC320TYSJD4Q4      ","defaultSalePriceIqd":"45000","defaultPurchasePriceIqd":"28000","minSalePriceIqd":"36000","description":null,"isPublishedOnline":false,"tags":["uat"],"imageUrls":[],"isActive":true,"createdAt":"2026-04-29T17:27:42.154Z","updatedAt":"2026-04-29T17:27:42.154Z","createdBy":"uat-seed                  ","updatedBy":"uat-seed                  ","deletedAt":null,"deletedBy":null,"category":{"id":"01KQD4GG5F6C4H4X6EZ02KYD9X","nameAr":"إلكترونيات"},"_count":{"variants":1}},{"id":"01KQD4GGT00RFHMBXHAK812WZG","companyId":"01KQ28E8FXFN06M56NRA      ","sku":"UAT-E-009","nameAr":"حامل هاتف","nameEn":"حامل هاتف","name1":"حامل هاتف","name2":null,"name3":null,"generatedFullName":"حامل هاتف","categoryId":"01KQD4GG5F6C4H4X6EZ02KYD9X","brandId":null,"type":"storable","baseUnitId":"01KQ52FTC320TYSJD4Q4      ","saleUnitId":"01KQ52FTC320TYSJD4Q4      ","purchaseUnitId":"01KQ52FTC320TYSJD4Q4      ","defaultSalePriceIqd":"8000","defaultPurchasePriceIqd":"5000","minSalePriceIqd":"6400","description":null,"isPublishedOnline":false,"tags":["uat"],"imageUrls":[],"isActive":true,"createdAt":"2026-04-29T17:27:42.143Z","updatedAt":"2026-04-29T17:27:42.143Z","createdBy":"uat-seed                  ","updatedBy":"uat-seed                  ","deletedAt":null,"deletedBy":null,"category":{"id":"01KQD4GG5F6C4H4X6EZ02KYD9X","nameAr":"إلكترونيات"},"_count":{"variants":1}},{"id":"01KQD4GGS2Y8CA0S7CKRFXTB0Y","companyId":"01KQ28E8FXFN06M56NRA      ","sku":"UAT-E-008","nameAr":"فأرة كمبيوتر USB","nameEn":"فأرة كمبيوتر USB","name1":"فأرة كمبيوتر USB","name2":null,"name3":null,"generatedFullName":"فأرة كمبيوتر USB","categoryId":"01KQD4GG5F6C4H4X6EZ02KYD9X","brandId":null,"type":"storable","baseUnitId":"01KQ52FTC320TYSJD4Q4      ","saleUnitId":"01KQ52FTC320TYSJD4Q4      ","purchaseUnitId":"01KQ52FTC320TYSJD4Q4      ","defaultSalePriceIqd":"12000","defaultPurchasePriceIqd":"7000","minSalePriceIqd":"9600","description":null,"isPublishedOnline":false,"tags":["uat"],"imageUrls":[],"isActive":true,"createdAt":"2026-04-29T17:27:42.113Z","updatedAt":"2026-04-29T17:27:42.113Z","createdBy":"uat-seed                  ","updatedBy":"uat-seed                  ","deletedAt":null,"deletedBy":null,"category":{"id":"01KQD4GG5F6C4H4X6EZ02KYD9X","nameAr":"إلكترونيات"},"_count":{"variants":1}},{"id":"01KQD4GGRTRDDD0JAVYJ2K7GC5","companyId":"01KQ28E8FXFN06M56NRA      ","sku":"UAT-E-007","nameAr":"لوحة مفاتيح USB","nameEn":"لوحة مفاتيح USB","name1":"لوحة مفاتيح USB","name2":null,"name3":null,"generatedFullName":"لوحة مفاتيح USB","categoryId":"01KQD4GG5F6C4H4X6EZ02KYD9X","brandId":null,"type":"storable","baseUnitId":"01KQ52FTC320TYSJD4Q4      ","saleUnitId":"01KQ52FTC320TYSJD4Q4      ","purchaseUnitId":"01KQ52FTC320TYSJD4Q4      ","defaultSalePriceIqd":"25000","defaultPurchasePriceIqd":"15000","minSalePriceIqd":"20000","description":null,"isPublishedOnline":false,"tags":["uat"],"imageUrls":[],"isActive":true,"createdAt":"2026-04-29T17:27:42.105Z","updatedAt":"2026-04-29T17:27:42.105Z","createdBy":"uat-seed                  ","updatedBy":"uat-seed                  ","deletedAt":null,"deletedBy":null,"category":{"id":"01KQD4GG5F6C4H4X6EZ02KYD9X","nameAr":"إلكترونيات"},"_count":{"variants":1}},{"id":"01KQD4GGRKRD8Y55GKJXQRRMM5","companyId":"01KQ28E8FXFN06M56NRA      ","sku":"UAT-E-006","nameAr":"شريط لاصق ملون","nameEn":"شريط لاصق ملون","name1":"شريط لاصق ملون","name2":null,"name3":null,"generatedFullName":"شريط لاصق ملون","categoryId":"01KQD4GG5F6C4H4X6EZ02KYD9X","brandId":null,"type":"storable","baseUnitId":"01KQ52FTC320TYSJD4Q4      ","saleUnitId":"01KQ52FTC320TYSJD4Q4      ","purchaseUnitId":"01KQ52FTC320TYSJD4Q4      ","defaultSalePriceIqd":"2000","defaultPurchasePriceIqd":"1200","minSalePriceIqd":"1600","description":null,"isPublishedOnline":false,"tags":["uat"],"imageUrls":[],"isActive":true,"createdAt":"2026-04-29T17:27:42.098Z","updatedAt":"2026-04-29T17:27:42.098Z","createdBy":"uat-seed                  ","updatedBy":"uat-seed                  ","deletedAt":null,"deletedBy":null,"category":{"id":"01KQD4GG5F6C4H4X6EZ02KYD9X","nameAr":"إلكترونيات"},"_count":{"variants":1}}],"total":50,"page":1,"limit":10,"pages":5}
{"_meta":{"status":200,"time_ms":0.377519}}
